EESchema Schematic File Version 2
LIBS:power
LIBS:device
LIBS:transistors
LIBS:conn
LIBS:linear
LIBS:regul
LIBS:74xx
LIBS:cmos4000
LIBS:adc-dac
LIBS:memory
LIBS:xilinx
LIBS:special
LIBS:microcontrollers
LIBS:dsp
LIBS:microchip
LIBS:analog_switches
LIBS:motorola
LIBS:texas
LIBS:intel
LIBS:audio
LIBS:interface
LIBS:digital-audio
LIBS:philips
LIBS:display
LIBS:cypress
LIBS:siliconi
LIBS:opto
LIBS:atmel
LIBS:contrib
LIBS:valves
LIBS:HelioX-cache
EELAYER 27 0
EELAYER END
$Descr USLetter 11000 8500
encoding utf-8
Sheet 1 1
Title ""
Date "29 jul 2015"
Rev ""
Comp ""
Comment1 ""
Comment2 ""
Comment3 ""
Comment4 ""
$EndDescr
$Comp
L R RA-1
U 1 1 5585CAE7
P 6150 1750
F 0 "RA-1" V 6230 1750 40  0000 C CNN
F 1 "20k" V 6157 1751 40  0000 C CNN
F 2 "~" V 6080 1750 30  0000 C CNN
F 3 "~" H 6150 1750 30  0000 C CNN
	1    6150 1750
	1    0    0    -1  
$EndComp
$Comp
L R RA-2
U 1 1 5585CAE9
P 6600 1750
F 0 "RA-2" V 6680 1750 40  0000 C CNN
F 1 "20k" V 6607 1751 40  0000 C CNN
F 2 "~" V 6530 1750 30  0000 C CNN
F 3 "~" H 6600 1750 30  0000 C CNN
	1    6600 1750
	1    0    0    -1  
$EndComp
$Comp
L INA826 OpAmp1
U 1 1 5585CAF7
P 7400 2100
F 0 "OpAmp1" H 7800 2350 70  0000 C CNN
F 1 "INA826" H 7800 1850 70  0000 C CNN
F 2 "" H 7400 2100 60  0000 C CNN
F 3 "" H 7400 2100 60  0000 C CNN
	1    7400 2100
	1    0    0    -1  
$EndComp
$Comp
L GND #PWR01
U 1 1 5585CAFA
P 8300 2750
F 0 "#PWR01" H 8300 2750 30  0001 C CNN
F 1 "GND" H 8300 2680 30  0001 C CNN
F 2 "" H 8300 2750 60  0000 C CNN
F 3 "" H 8300 2750 60  0000 C CNN
	1    8300 2750
	1    0    0    -1  
$EndComp
$Comp
L DVR8803 DRV1
U 1 1 5585CB09
P 2150 2650
F 0 "DRV1" H 2000 3150 60  0000 C CNN
F 1 "DRV8803" H 2000 1800 60  0000 C CNN
F 2 "~" H 2150 2650 60  0000 C CNN
F 3 "~" H 2150 2650 60  0000 C CNN
	1    2150 2650
	-1   0    0    -1  
$EndComp
$Comp
L GND #PWR02
U 1 1 5585CB0F
P 5250 1850
F 0 "#PWR02" H 5250 1850 30  0001 C CNN
F 1 "GND" H 5250 1780 30  0001 C CNN
F 2 "" H 5250 1850 60  0000 C CNN
F 3 "" H 5250 1850 60  0000 C CNN
	1    5250 1850
	1    0    0    -1  
$EndComp
$Comp
L LM2937 Reg1
U 1 1 5585CB13
P 5250 1400
F 0 "Reg1" H 5400 1204 60  0000 C CNN
F 1 "LM3480" H 5250 1600 60  0000 C CNN
F 2 "" H 5250 1400 60  0000 C CNN
F 3 "" H 5250 1400 60  0000 C CNN
	1    5250 1400
	1    0    0    -1  
$EndComp
$Comp
L TLC548 ADC1
U 1 1 5585CAFD
P 8950 2150
F 0 "ADC1" H 8950 1800 60  0000 C CNN
F 1 "TLC548" H 8950 2450 60  0000 C CNN
F 2 "" H 8950 2150 60  0000 C CNN
F 3 "" H 8950 2150 60  0000 C CNN
	1    8950 2150
	1    0    0    -1  
$EndComp
$Comp
L CONN_2 PhotoR1
U 1 1 5585E93E
P 5800 2500
F 0 "PhotoR1" V 5750 2500 40  0000 C CNN
F 1 "CONN_2" V 5850 2500 40  0000 C CNN
F 2 "" H 5800 2500 60  0000 C CNN
F 3 "" H 5800 2500 60  0000 C CNN
	1    5800 2500
	-1   0    0    1   
$EndComp
$Comp
L POT POT1
U 1 1 5586267B
P 6600 2500
F 0 "POT1" H 6600 2400 50  0000 C CNN
F 1 "2k" H 6600 2500 50  0000 C CNN
F 2 "~" H 6600 2500 60  0000 C CNN
F 3 "~" H 6600 2500 60  0000 C CNN
	1    6600 2500
	0    -1   -1   0   
$EndComp
$Comp
L GND #PWR03
U 1 1 55B1625B
P 6150 2750
F 0 "#PWR03" H 6150 2750 30  0001 C CNN
F 1 "GND" H 6150 2680 30  0001 C CNN
F 2 "" H 6150 2750 60  0000 C CNN
F 3 "" H 6150 2750 60  0000 C CNN
	1    6150 2750
	1    0    0    -1  
$EndComp
$Comp
L R RA-3
U 1 1 55B16A2B
P 7800 2600
F 0 "RA-3" V 7880 2600 40  0000 C CNN
F 1 "1.5k" V 7807 2601 40  0000 C CNN
F 2 "~" V 7730 2600 30  0000 C CNN
F 3 "~" H 7800 2600 30  0000 C CNN
	1    7800 2600
	0    -1   -1   0   
$EndComp
$Comp
L GND #PWR04
U 1 1 55B16BD2
P 7300 2750
F 0 "#PWR04" H 7300 2750 30  0001 C CNN
F 1 "GND" H 7300 2680 30  0001 C CNN
F 2 "" H 7300 2750 60  0000 C CNN
F 3 "" H 7300 2750 60  0000 C CNN
	1    7300 2750
	1    0    0    -1  
$EndComp
$Comp
L GND #PWR05
U 1 1 55B16BE1
P 7500 1550
F 0 "#PWR05" H 7500 1550 30  0001 C CNN
F 1 "GND" H 7500 1480 30  0001 C CNN
F 2 "" H 7500 1550 60  0000 C CNN
F 3 "" H 7500 1550 60  0000 C CNN
	1    7500 1550
	-1   0    0    1   
$EndComp
$Comp
L +12V #PWR06
U 1 1 55B174F6
P 4750 1300
F 0 "#PWR06" H 4750 1250 20  0001 C CNN
F 1 "+12V" H 4750 1400 30  0000 C CNN
F 2 "" H 4750 1300 60  0000 C CNN
F 3 "" H 4750 1300 60  0000 C CNN
	1    4750 1300
	1    0    0    -1  
$EndComp
$Comp
L R RB-1
U 1 1 55B176A3
P 6150 3550
F 0 "RB-1" V 6230 3550 40  0000 C CNN
F 1 "20k" V 6157 3551 40  0000 C CNN
F 2 "~" V 6080 3550 30  0000 C CNN
F 3 "~" H 6150 3550 30  0000 C CNN
	1    6150 3550
	1    0    0    -1  
$EndComp
$Comp
L R RB-2
U 1 1 55B176A9
P 6600 3550
F 0 "RB-2" V 6680 3550 40  0000 C CNN
F 1 "20k" V 6607 3551 40  0000 C CNN
F 2 "~" V 6530 3550 30  0000 C CNN
F 3 "~" H 6600 3550 30  0000 C CNN
	1    6600 3550
	1    0    0    -1  
$EndComp
$Comp
L INA826 OpAmp2
U 1 1 55B176AF
P 7400 3900
F 0 "OpAmp2" H 7800 4150 70  0000 C CNN
F 1 "INA826" H 7800 3650 70  0000 C CNN
F 2 "" H 7400 3900 60  0000 C CNN
F 3 "" H 7400 3900 60  0000 C CNN
	1    7400 3900
	1    0    0    -1  
$EndComp
$Comp
L GND #PWR07
U 1 1 55B176B5
P 8300 4550
F 0 "#PWR07" H 8300 4550 30  0001 C CNN
F 1 "GND" H 8300 4480 30  0001 C CNN
F 2 "" H 8300 4550 60  0000 C CNN
F 3 "" H 8300 4550 60  0000 C CNN
	1    8300 4550
	1    0    0    -1  
$EndComp
$Comp
L GND #PWR08
U 1 1 55B176BB
P 5250 3650
F 0 "#PWR08" H 5250 3650 30  0001 C CNN
F 1 "GND" H 5250 3580 30  0001 C CNN
F 2 "" H 5250 3650 60  0000 C CNN
F 3 "" H 5250 3650 60  0000 C CNN
	1    5250 3650
	1    0    0    -1  
$EndComp
$Comp
L LM2937 Reg2
U 1 1 55B176C1
P 5250 3200
F 0 "Reg2" H 5400 3004 60  0000 C CNN
F 1 "LM3480" H 5250 3400 60  0000 C CNN
F 2 "" H 5250 3200 60  0000 C CNN
F 3 "" H 5250 3200 60  0000 C CNN
	1    5250 3200
	1    0    0    -1  
$EndComp
$Comp
L TLC548 ADC2
U 1 1 55B176C7
P 8950 3950
F 0 "ADC2" H 8950 3600 60  0000 C CNN
F 1 "TLC548" H 8950 4250 60  0000 C CNN
F 2 "" H 8950 3950 60  0000 C CNN
F 3 "" H 8950 3950 60  0000 C CNN
	1    8950 3950
	1    0    0    -1  
$EndComp
$Comp
L CONN_2 PhotoR2
U 1 1 55B176CD
P 5800 4300
F 0 "PhotoR2" V 5750 4300 40  0000 C CNN
F 1 "CONN_2" V 5850 4300 40  0000 C CNN
F 2 "" H 5800 4300 60  0000 C CNN
F 3 "" H 5800 4300 60  0000 C CNN
	1    5800 4300
	-1   0    0    1   
$EndComp
$Comp
L POT POT2
U 1 1 55B176D3
P 6600 4300
F 0 "POT2" H 6600 4200 50  0000 C CNN
F 1 "2k" H 6600 4300 50  0000 C CNN
F 2 "~" H 6600 4300 60  0000 C CNN
F 3 "~" H 6600 4300 60  0000 C CNN
	1    6600 4300
	0    -1   -1   0   
$EndComp
$Comp
L GND #PWR09
U 1 1 55B176DF
P 6150 4550
F 0 "#PWR09" H 6150 4550 30  0001 C CNN
F 1 "GND" H 6150 4480 30  0001 C CNN
F 2 "" H 6150 4550 60  0000 C CNN
F 3 "" H 6150 4550 60  0000 C CNN
	1    6150 4550
	1    0    0    -1  
$EndComp
$Comp
L R RB-3
U 1 1 55B176EF
P 7800 4400
F 0 "RB-3" V 7880 4400 40  0000 C CNN
F 1 "1.5k" V 7807 4401 40  0000 C CNN
F 2 "~" V 7730 4400 30  0000 C CNN
F 3 "~" H 7800 4400 30  0000 C CNN
	1    7800 4400
	0    -1   -1   0   
$EndComp
$Comp
L GND #PWR010
U 1 1 55B176FB
P 7300 4550
F 0 "#PWR010" H 7300 4550 30  0001 C CNN
F 1 "GND" H 7300 4480 30  0001 C CNN
F 2 "" H 7300 4550 60  0000 C CNN
F 3 "" H 7300 4550 60  0000 C CNN
	1    7300 4550
	1    0    0    -1  
$EndComp
$Comp
L GND #PWR011
U 1 1 55B17701
P 7500 3350
F 0 "#PWR011" H 7500 3350 30  0001 C CNN
F 1 "GND" H 7500 3280 30  0001 C CNN
F 2 "" H 7500 3350 60  0000 C CNN
F 3 "" H 7500 3350 60  0000 C CNN
	1    7500 3350
	-1   0    0    1   
$EndComp
$Comp
L +12V #PWR012
U 1 1 55B17715
P 4750 3100
F 0 "#PWR012" H 4750 3050 20  0001 C CNN
F 1 "+12V" H 4750 3200 30  0000 C CNN
F 2 "" H 4750 3100 60  0000 C CNN
F 3 "" H 4750 3100 60  0000 C CNN
	1    4750 3100
	1    0    0    -1  
$EndComp
$Comp
L R RC-1
U 1 1 55B17751
P 6150 5350
F 0 "RC-1" V 6230 5350 40  0000 C CNN
F 1 "20k" V 6157 5351 40  0000 C CNN
F 2 "~" V 6080 5350 30  0000 C CNN
F 3 "~" H 6150 5350 30  0000 C CNN
	1    6150 5350
	1    0    0    -1  
$EndComp
$Comp
L R RC-2
U 1 1 55B17757
P 6600 5350
F 0 "RC-2" V 6680 5350 40  0000 C CNN
F 1 "20k" V 6607 5351 40  0000 C CNN
F 2 "~" V 6530 5350 30  0000 C CNN
F 3 "~" H 6600 5350 30  0000 C CNN
	1    6600 5350
	1    0    0    -1  
$EndComp
$Comp
L INA826 OpAmp3
U 1 1 55B1775D
P 7400 5700
F 0 "OpAmp3" H 7800 5950 70  0000 C CNN
F 1 "INA826" H 7800 5450 70  0000 C CNN
F 2 "" H 7400 5700 60  0000 C CNN
F 3 "" H 7400 5700 60  0000 C CNN
	1    7400 5700
	1    0    0    -1  
$EndComp
$Comp
L GND #PWR013
U 1 1 55B17763
P 8300 6350
F 0 "#PWR013" H 8300 6350 30  0001 C CNN
F 1 "GND" H 8300 6280 30  0001 C CNN
F 2 "" H 8300 6350 60  0000 C CNN
F 3 "" H 8300 6350 60  0000 C CNN
	1    8300 6350
	1    0    0    -1  
$EndComp
$Comp
L GND #PWR014
U 1 1 55B17769
P 5250 5450
F 0 "#PWR014" H 5250 5450 30  0001 C CNN
F 1 "GND" H 5250 5380 30  0001 C CNN
F 2 "" H 5250 5450 60  0000 C CNN
F 3 "" H 5250 5450 60  0000 C CNN
	1    5250 5450
	1    0    0    -1  
$EndComp
$Comp
L LM2937 Reg3
U 1 1 55B1776F
P 5250 5000
F 0 "Reg3" H 5400 4804 60  0000 C CNN
F 1 "LM3480" H 5250 5200 60  0000 C CNN
F 2 "" H 5250 5000 60  0000 C CNN
F 3 "" H 5250 5000 60  0000 C CNN
	1    5250 5000
	1    0    0    -1  
$EndComp
$Comp
L TLC548 ADC3
U 1 1 55B17775
P 8950 5750
F 0 "ADC3" H 8950 5400 60  0000 C CNN
F 1 "TLC548" H 8950 6050 60  0000 C CNN
F 2 "" H 8950 5750 60  0000 C CNN
F 3 "" H 8950 5750 60  0000 C CNN
	1    8950 5750
	1    0    0    -1  
$EndComp
$Comp
L CONN_2 PhotoR3
U 1 1 55B1777B
P 5800 6100
F 0 "PhotoR3" V 5750 6100 40  0000 C CNN
F 1 "CONN_2" V 5850 6100 40  0000 C CNN
F 2 "" H 5800 6100 60  0000 C CNN
F 3 "" H 5800 6100 60  0000 C CNN
	1    5800 6100
	-1   0    0    1   
$EndComp
$Comp
L POT POT3
U 1 1 55B17781
P 6600 6100
F 0 "POT3" H 6600 6000 50  0000 C CNN
F 1 "2k" H 6600 6100 50  0000 C CNN
F 2 "~" H 6600 6100 60  0000 C CNN
F 3 "~" H 6600 6100 60  0000 C CNN
	1    6600 6100
	0    -1   -1   0   
$EndComp
$Comp
L GND #PWR015
U 1 1 55B17787
P 6400 6350
F 0 "#PWR015" H 6400 6350 30  0001 C CNN
F 1 "GND" H 6400 6280 30  0001 C CNN
F 2 "" H 6400 6350 60  0000 C CNN
F 3 "" H 6400 6350 60  0000 C CNN
	1    6400 6350
	1    0    0    -1  
$EndComp
$Comp
L GND #PWR016
U 1 1 55B1778D
P 6150 6350
F 0 "#PWR016" H 6150 6350 30  0001 C CNN
F 1 "GND" H 6150 6280 30  0001 C CNN
F 2 "" H 6150 6350 60  0000 C CNN
F 3 "" H 6150 6350 60  0000 C CNN
	1    6150 6350
	1    0    0    -1  
$EndComp
$Comp
L R RC-3
U 1 1 55B1779D
P 7800 6200
F 0 "RC-3" V 7880 6200 40  0000 C CNN
F 1 "1.5k" V 7807 6201 40  0000 C CNN
F 2 "~" V 7730 6200 30  0000 C CNN
F 3 "~" H 7800 6200 30  0000 C CNN
	1    7800 6200
	0    -1   -1   0   
$EndComp
$Comp
L GND #PWR017
U 1 1 55B177A9
P 7300 6350
F 0 "#PWR017" H 7300 6350 30  0001 C CNN
F 1 "GND" H 7300 6280 30  0001 C CNN
F 2 "" H 7300 6350 60  0000 C CNN
F 3 "" H 7300 6350 60  0000 C CNN
	1    7300 6350
	1    0    0    -1  
$EndComp
$Comp
L GND #PWR018
U 1 1 55B177AF
P 7500 5150
F 0 "#PWR018" H 7500 5150 30  0001 C CNN
F 1 "GND" H 7500 5080 30  0001 C CNN
F 2 "" H 7500 5150 60  0000 C CNN
F 3 "" H 7500 5150 60  0000 C CNN
	1    7500 5150
	-1   0    0    1   
$EndComp
$Comp
L +12V #PWR019
U 1 1 55B177C3
P 4750 4900
F 0 "#PWR019" H 4750 4850 20  0001 C CNN
F 1 "+12V" H 4750 5000 30  0000 C CNN
F 2 "" H 4750 4900 60  0000 C CNN
F 3 "" H 4750 4900 60  0000 C CNN
	1    4750 4900
	1    0    0    -1  
$EndComp
$Comp
L CONN_5 Motor1
U 1 1 55B185F8
P 3400 1350
F 0 "Motor1" V 3350 1350 50  0000 C CNN
F 1 "CONN_5" V 3450 1350 50  0000 C CNN
F 2 "" H 3400 1350 60  0000 C CNN
F 3 "" H 3400 1350 60  0000 C CNN
	1    3400 1350
	0    1    -1   0   
$EndComp
$Comp
L LED D6
U 1 1 55B18AAE
P 3050 3500
F 0 "D6" H 3050 3600 50  0000 C CNN
F 1 "LED" H 3050 3400 50  0000 C CNN
F 2 "~" H 3050 3500 60  0000 C CNN
F 3 "~" H 3050 3500 60  0000 C CNN
	1    3050 3500
	0    -1   -1   0   
$EndComp
$Comp
L LED D4
U 1 1 55B18AEA
P 3550 2950
F 0 "D4" H 3550 3050 50  0000 C CNN
F 1 "LED" H 3550 2850 50  0000 C CNN
F 2 "~" H 3550 2950 60  0000 C CNN
F 3 "~" H 3550 2950 60  0000 C CNN
	1    3550 2950
	0    -1   -1   0   
$EndComp
$Comp
L LED D5
U 1 1 55B18AF9
P 3300 3350
F 0 "D5" H 3300 3450 50  0000 C CNN
F 1 "LED" H 3300 3250 50  0000 C CNN
F 2 "~" H 3300 3350 60  0000 C CNN
F 3 "~" H 3300 3350 60  0000 C CNN
	1    3300 3350
	0    -1   -1   0   
$EndComp
$Comp
L LED D3
U 1 1 55B19660
P 3800 2800
F 0 "D3" H 3800 2900 50  0000 C CNN
F 1 "LED" H 3800 2700 50  0000 C CNN
F 2 "~" H 3800 2800 60  0000 C CNN
F 3 "~" H 3800 2800 60  0000 C CNN
	1    3800 2800
	0    -1   -1   0   
$EndComp
NoConn ~ 1700 2350
NoConn ~ 1700 2450
$Comp
L GND #PWR020
U 1 1 55B19679
P 1650 3300
F 0 "#PWR020" H 1650 3300 30  0001 C CNN
F 1 "GND" H 1650 3230 30  0001 C CNN
F 2 "" H 1650 3300 60  0000 C CNN
F 3 "" H 1650 3300 60  0000 C CNN
	1    1650 3300
	1    0    0    -1  
$EndComp
$Comp
L GND #PWR021
U 1 1 55B1A225
P 1500 2850
F 0 "#PWR021" H 1500 2850 30  0001 C CNN
F 1 "GND" H 1500 2780 30  0001 C CNN
F 2 "" H 1500 2850 60  0000 C CNN
F 3 "" H 1500 2850 60  0000 C CNN
	1    1500 2850
	0    1    1    0   
$EndComp
$Comp
L ZENER D1
U 1 1 55B1B6CA
P 3400 2200
F 0 "D1" H 3400 2300 50  0000 C CNN
F 1 "ZENER" H 3400 2100 40  0000 C CNN
F 2 "~" H 3400 2200 60  0000 C CNN
F 3 "~" H 3400 2200 60  0000 C CNN
	1    3400 2200
	0    1    1    0   
$EndComp
$Comp
L +12V #PWR022
U 1 1 55B1BCDB
P 2950 2250
F 0 "#PWR022" H 2950 2200 20  0001 C CNN
F 1 "+12V" H 2950 2350 30  0000 C CNN
F 2 "" H 2950 2250 60  0000 C CNN
F 3 "" H 2950 2250 60  0000 C CNN
	1    2950 2250
	1    0    0    -1  
$EndComp
$Comp
L R RA-4
U 1 1 55B1C4C4
P 7800 2850
F 0 "RA-4" V 7880 2850 40  0000 C CNN
F 1 "1.5k" V 7807 2851 40  0000 C CNN
F 2 "~" V 7730 2850 30  0000 C CNN
F 3 "~" H 7800 2850 30  0000 C CNN
	1    7800 2850
	0    -1   -1   0   
$EndComp
$Comp
L GND #PWR023
U 1 1 55B1CCAB
P 3100 2850
F 0 "#PWR023" H 3100 2850 30  0001 C CNN
F 1 "GND" H 3100 2780 30  0001 C CNN
F 2 "" H 3100 2850 60  0000 C CNN
F 3 "" H 3100 2850 60  0000 C CNN
	1    3100 2850
	0    -1   -1   0   
$EndComp
$Comp
L R RB-4
U 1 1 55B1CF4E
P 7800 4650
F 0 "RB-4" V 7880 4650 40  0000 C CNN
F 1 "1.5k" V 7807 4651 40  0000 C CNN
F 2 "~" V 7730 4650 30  0000 C CNN
F 3 "~" H 7800 4650 30  0000 C CNN
	1    7800 4650
	0    -1   -1   0   
$EndComp
NoConn ~ 6600 2750
$Comp
L GND #PWR024
U 1 1 55B1DB38
P 6400 2750
F 0 "#PWR024" H 6400 2750 30  0001 C CNN
F 1 "GND" H 6400 2680 30  0001 C CNN
F 2 "" H 6400 2750 60  0000 C CNN
F 3 "" H 6400 2750 60  0000 C CNN
	1    6400 2750
	1    0    0    -1  
$EndComp
$Comp
L GND #PWR025
U 1 1 55B1E4B4
P 6400 4550
F 0 "#PWR025" H 6400 4550 30  0001 C CNN
F 1 "GND" H 6400 4480 30  0001 C CNN
F 2 "" H 6400 4550 60  0000 C CNN
F 3 "" H 6400 4550 60  0000 C CNN
	1    6400 4550
	1    0    0    -1  
$EndComp
NoConn ~ 6600 4550
NoConn ~ 6600 6350
$Comp
L R RC-4
U 1 1 55B1F634
P 7800 6400
F 0 "RC-4" V 7880 6400 40  0000 C CNN
F 1 "1.5k" V 7807 6401 40  0000 C CNN
F 2 "~" V 7730 6400 30  0000 C CNN
F 3 "~" H 7800 6400 30  0000 C CNN
	1    7800 6400
	0    -1   -1   0   
$EndComp
$Comp
L VCC #PWR026
U 1 1 55B203DC
P 2750 1900
F 0 "#PWR026" H 2750 2000 30  0001 C CNN
F 1 "VCC" H 2750 2000 30  0000 C CNN
F 2 "" H 2750 1900 60  0000 C CNN
F 3 "" H 2750 1900 60  0000 C CNN
	1    2750 1900
	0    -1   -1   0   
$EndComp
$Comp
L VCC #PWR027
U 1 1 55B2055B
P 3300 4400
F 0 "#PWR027" H 3300 4500 30  0001 C CNN
F 1 "VCC" H 3300 4500 30  0000 C CNN
F 2 "" H 3300 4400 60  0000 C CNN
F 3 "" H 3300 4400 60  0000 C CNN
	1    3300 4400
	0    -1   -1   0   
$EndComp
$Comp
L DVR8803 DRV2
U 1 1 55B206D0
P 2150 6050
F 0 "DRV2" H 2000 6550 60  0000 C CNN
F 1 "DRV8803" H 2000 5200 60  0000 C CNN
F 2 "~" H 2150 6050 60  0000 C CNN
F 3 "~" H 2150 6050 60  0000 C CNN
	1    2150 6050
	-1   0    0    -1  
$EndComp
$Comp
L CONN_5 Motor2
U 1 1 55B206D6
P 3400 4750
F 0 "Motor2" V 3350 4750 50  0000 C CNN
F 1 "CONN_5" V 3450 4750 50  0000 C CNN
F 2 "" H 3400 4750 60  0000 C CNN
F 3 "" H 3400 4750 60  0000 C CNN
	1    3400 4750
	0    1    -1   0   
$EndComp
$Comp
L LED D10
U 1 1 55B206F4
P 3050 6900
F 0 "D10" H 3050 7000 50  0000 C CNN
F 1 "LED" H 3050 6800 50  0000 C CNN
F 2 "~" H 3050 6900 60  0000 C CNN
F 3 "~" H 3050 6900 60  0000 C CNN
	1    3050 6900
	0    -1   -1   0   
$EndComp
$Comp
L LED D8
U 1 1 55B206FA
P 3550 6350
F 0 "D8" H 3550 6450 50  0000 C CNN
F 1 "LED" H 3550 6250 50  0000 C CNN
F 2 "~" H 3550 6350 60  0000 C CNN
F 3 "~" H 3550 6350 60  0000 C CNN
	1    3550 6350
	0    -1   -1   0   
$EndComp
$Comp
L LED D9
U 1 1 55B20700
P 3300 6750
F 0 "D9" H 3300 6850 50  0000 C CNN
F 1 "LED" H 3300 6650 50  0000 C CNN
F 2 "~" H 3300 6750 60  0000 C CNN
F 3 "~" H 3300 6750 60  0000 C CNN
	1    3300 6750
	0    -1   -1   0   
$EndComp
$Comp
L LED D7
U 1 1 55B20706
P 3800 6200
F 0 "D7" H 3800 6300 50  0000 C CNN
F 1 "LED" H 3800 6100 50  0000 C CNN
F 2 "~" H 3800 6200 60  0000 C CNN
F 3 "~" H 3800 6200 60  0000 C CNN
	1    3800 6200
	0    -1   -1   0   
$EndComp
NoConn ~ 1700 5750
NoConn ~ 1700 5850
$Comp
L GND #PWR028
U 1 1 55B2070E
P 1650 6700
F 0 "#PWR028" H 1650 6700 30  0001 C CNN
F 1 "GND" H 1650 6630 30  0001 C CNN
F 2 "" H 1650 6700 60  0000 C CNN
F 3 "" H 1650 6700 60  0000 C CNN
	1    1650 6700
	1    0    0    -1  
$EndComp
$Comp
L GND #PWR029
U 1 1 55B20714
P 1500 6250
F 0 "#PWR029" H 1500 6250 30  0001 C CNN
F 1 "GND" H 1500 6180 30  0001 C CNN
F 2 "" H 1500 6250 60  0000 C CNN
F 3 "" H 1500 6250 60  0000 C CNN
	1    1500 6250
	0    1    1    0   
$EndComp
$Comp
L ZENER D2
U 1 1 55B2071A
P 3400 5600
F 0 "D2" H 3400 5700 50  0000 C CNN
F 1 "ZENER" H 3400 5500 40  0000 C CNN
F 2 "~" H 3400 5600 60  0000 C CNN
F 3 "~" H 3400 5600 60  0000 C CNN
	1    3400 5600
	0    1    1    0   
$EndComp
$Comp
L +12V #PWR030
U 1 1 55B20720
P 2950 5650
F 0 "#PWR030" H 2950 5600 20  0001 C CNN
F 1 "+12V" H 2950 5750 30  0000 C CNN
F 2 "" H 2950 5650 60  0000 C CNN
F 3 "" H 2950 5650 60  0000 C CNN
	1    2950 5650
	1    0    0    -1  
$EndComp
$Comp
L GND #PWR031
U 1 1 55B20756
P 3100 6250
F 0 "#PWR031" H 3100 6250 30  0001 C CNN
F 1 "GND" H 3100 6180 30  0001 C CNN
F 2 "" H 3100 6250 60  0000 C CNN
F 3 "" H 3100 6250 60  0000 C CNN
	1    3100 6250
	0    -1   -1   0   
$EndComp
$Comp
L VCC #PWR032
U 1 1 55B2075D
P 2750 5300
F 0 "#PWR032" H 2750 5400 30  0001 C CNN
F 1 "VCC" H 2750 5400 30  0000 C CNN
F 2 "" H 2750 5300 60  0000 C CNN
F 3 "" H 2750 5300 60  0000 C CNN
	1    2750 5300
	0    -1   -1   0   
$EndComp
$Comp
L CONN_6 Data1
U 1 1 55B21B45
P 9750 6600
F 0 "Data1" V 9700 6600 60  0000 C CNN
F 1 "CONN_6" V 9800 6600 60  0000 C CNN
F 2 "" H 9750 6600 60  0000 C CNN
F 3 "" H 9750 6600 60  0000 C CNN
	1    9750 6600
	0    -1   1    0   
$EndComp
$Comp
L GND #PWR033
U 1 1 55B21B54
P 9500 6100
F 0 "#PWR033" H 9500 6100 30  0001 C CNN
F 1 "GND" H 9500 6030 30  0001 C CNN
F 2 "" H 9500 6100 60  0000 C CNN
F 3 "" H 9500 6100 60  0000 C CNN
	1    9500 6100
	-1   0    0    1   
$EndComp
$Comp
L CONN_3 Jumper1
U 1 1 55B21D15
P 2500 1250
F 0 "Jumper1" V 2450 1250 50  0000 C CNN
F 1 "CONN_3" V 2550 1250 40  0000 C CNN
F 2 "" H 2500 1250 60  0000 C CNN
F 3 "" H 2500 1250 60  0000 C CNN
	1    2500 1250
	1    0    0    -1  
$EndComp
$Comp
L CONN_2 Vin2
U 1 1 55B21D3D
P 1150 1250
F 0 "Vin2" V 1100 1250 40  0000 C CNN
F 1 "CONN_2" V 1200 1250 40  0000 C CNN
F 2 "" H 1150 1250 60  0000 C CNN
F 3 "" H 1150 1250 60  0000 C CNN
	1    1150 1250
	-1   0    0    1   
$EndComp
$Comp
L GND #PWR034
U 1 1 55B21F0D
P 1600 1800
F 0 "#PWR034" H 1600 1800 30  0001 C CNN
F 1 "GND" H 1600 1730 30  0001 C CNN
F 2 "" H 1600 1800 60  0000 C CNN
F 3 "" H 1600 1800 60  0000 C CNN
	1    1600 1800
	1    0    0    -1  
$EndComp
$Comp
L VCC #PWR035
U 1 1 55B227BA
P 1900 1250
F 0 "#PWR035" H 1900 1350 30  0001 C CNN
F 1 "VCC" H 1900 1350 30  0000 C CNN
F 2 "" H 1900 1250 60  0000 C CNN
F 3 "" H 1900 1250 60  0000 C CNN
	1    1900 1250
	0    -1   -1   0   
$EndComp
$Comp
L +12V #PWR036
U 1 1 55B227C9
P 2200 850
F 0 "#PWR036" H 2200 800 20  0001 C CNN
F 1 "+12V" H 2200 950 30  0000 C CNN
F 2 "" H 2200 850 60  0000 C CNN
F 3 "" H 2200 850 60  0000 C CNN
	1    2200 850 
	0    1    1    0   
$EndComp
$Comp
L GND #PWR037
U 1 1 55B23433
P 4700 6900
F 0 "#PWR037" H 4700 6900 30  0001 C CNN
F 1 "GND" H 4700 6830 30  0001 C CNN
F 2 "" H 4700 6900 60  0000 C CNN
F 3 "" H 4700 6900 60  0000 C CNN
	1    4700 6900
	1    0    0    -1  
$EndComp
$Comp
L +12V #PWR038
U 1 1 55B23442
P 5200 6650
F 0 "#PWR038" H 5200 6600 20  0001 C CNN
F 1 "+12V" H 5200 6750 30  0000 C CNN
F 2 "" H 5200 6650 60  0000 C CNN
F 3 "" H 5200 6650 60  0000 C CNN
	1    5200 6650
	1    0    0    -1  
$EndComp
$Comp
L CONN_7 Ctrl1
U 1 1 55B23E8B
P 2150 4700
F 0 "Ctrl1" V 2120 4700 60  0000 C CNN
F 1 "CONN_7" V 2220 4700 60  0000 C CNN
F 2 "" H 2150 4700 60  0000 C CNN
F 3 "" H 2150 4700 60  0000 C CNN
	1    2150 4700
	1    0    0    1   
$EndComp
$Comp
L +12V #PWR039
U 1 1 55B23E9A
P 1650 5100
F 0 "#PWR039" H 1650 5050 20  0001 C CNN
F 1 "+12V" H 1650 5200 30  0000 C CNN
F 2 "" H 1650 5100 60  0000 C CNN
F 3 "" H 1650 5100 60  0000 C CNN
	1    1650 5100
	-1   0    0    1   
$EndComp
Wire Wire Line
	6150 2000 6150 2400
Wire Wire Line
	6600 2000 6600 2250
Wire Wire Line
	6600 1500 6600 1350
Wire Wire Line
	5650 1350 9600 1350
Wire Wire Line
	6150 1350 6150 1500
Wire Wire Line
	7300 1350 7300 1800
Connection ~ 6600 1350
Wire Wire Line
	7300 2400 7300 2750
Wire Wire Line
	8100 2450 7500 2450
Wire Wire Line
	7400 2400 7400 2850
Wire Wire Line
	7500 1800 7500 1550
Wire Wire Line
	8400 2100 7800 2100
Wire Wire Line
	8400 2300 8300 2300
Wire Wire Line
	8300 2200 8300 2750
Wire Wire Line
	8300 2200 8400 2200
Connection ~ 8300 2300
Connection ~ 7300 1350
Wire Wire Line
	9500 2000 9600 2000
Wire Wire Line
	8400 2000 8300 2000
Wire Wire Line
	8300 2000 8300 1350
Connection ~ 8300 1350
Wire Wire Line
	9600 2000 9600 1350
Connection ~ 6150 1350
Wire Wire Line
	5250 1650 5250 1850
Wire Wire Line
	4850 1350 4750 1350
Wire Wire Line
	4750 1350 4750 1300
Wire Wire Line
	6150 3800 6150 4200
Wire Wire Line
	6600 3300 6600 3150
Wire Wire Line
	5650 3150 9600 3150
Wire Wire Line
	6150 3150 6150 3300
Wire Wire Line
	7300 3150 7300 3600
Connection ~ 6600 3150
Wire Wire Line
	7300 4200 7300 4550
Wire Wire Line
	8100 4250 8100 4650
Wire Wire Line
	8100 4250 7500 4250
Wire Wire Line
	7500 4250 7500 4200
Wire Wire Line
	7400 4200 7400 4650
Wire Wire Line
	7500 3600 7500 3350
Wire Wire Line
	8400 3900 7800 3900
Wire Wire Line
	8400 4100 8300 4100
Wire Wire Line
	8300 4000 8300 4550
Wire Wire Line
	8300 4000 8400 4000
Connection ~ 8300 4100
Connection ~ 7300 3150
Wire Wire Line
	9500 3800 9600 3800
Wire Wire Line
	8400 3800 8300 3800
Wire Wire Line
	8300 3800 8300 3150
Connection ~ 8300 3150
Wire Wire Line
	9600 3800 9600 3150
Connection ~ 6150 3150
Wire Wire Line
	5250 3450 5250 3650
Wire Wire Line
	4850 3150 4750 3150
Wire Wire Line
	4750 3150 4750 3100
Wire Wire Line
	6150 5600 6150 6000
Wire Wire Line
	6600 5600 6600 5850
Wire Wire Line
	6600 5100 6600 4950
Wire Wire Line
	5650 4950 9600 4950
Wire Wire Line
	6150 4950 6150 5100
Wire Wire Line
	7300 4950 7300 5400
Connection ~ 6600 4950
Wire Wire Line
	7300 6000 7300 6350
Wire Wire Line
	8100 6050 8100 6400
Wire Wire Line
	8100 6050 7500 6050
Wire Wire Line
	7500 6050 7500 6000
Wire Wire Line
	7400 6000 7400 6400
Wire Wire Line
	7500 5400 7500 5150
Wire Wire Line
	8400 5700 7800 5700
Wire Wire Line
	8400 5900 8300 5900
Wire Wire Line
	8300 5800 8300 6350
Wire Wire Line
	8300 5800 8400 5800
Connection ~ 8300 5900
Connection ~ 7300 4950
Wire Wire Line
	9500 5600 9600 5600
Wire Wire Line
	8400 5600 8300 5600
Wire Wire Line
	8300 5600 8300 4950
Connection ~ 8300 4950
Wire Wire Line
	9600 5600 9600 4950
Connection ~ 6150 4950
Wire Wire Line
	5250 5250 5250 5450
Wire Wire Line
	4850 4950 4750 4950
Wire Wire Line
	4750 4950 4750 4900
Wire Wire Line
	9600 5900 9600 6250
Wire Wire Line
	9600 5900 9500 5900
Wire Wire Line
	9700 4100 9500 4100
Wire Wire Line
	9800 2300 9500 2300
Wire Wire Line
	9900 2200 9500 2200
Wire Wire Line
	10000 2100 9500 2100
Wire Wire Line
	9500 3900 10000 3900
Connection ~ 10000 3900
Wire Wire Line
	9500 4000 9900 4000
Connection ~ 9900 4000
Wire Wire Line
	10000 5700 9500 5700
Connection ~ 10000 5700
Wire Wire Line
	9900 5800 9500 5800
Connection ~ 9900 5800
Wire Wire Line
	3300 3050 2850 3050
Wire Wire Line
	2850 2650 3550 2650
Wire Wire Line
	2850 2550 3800 2550
Wire Wire Line
	3550 2650 3550 2750
Wire Wire Line
	3300 1750 3300 3150
Wire Wire Line
	3050 2000 3050 3300
Wire Wire Line
	3050 3150 2850 3150
Wire Wire Line
	2850 2750 2950 2750
Wire Wire Line
	2950 2750 2950 2950
Wire Wire Line
	2950 2950 2850 2950
Connection ~ 2950 2850
Wire Wire Line
	3800 2000 3800 2600
Wire Wire Line
	1650 3300 1650 3250
Wire Wire Line
	1650 3250 1700 3250
Wire Wire Line
	1700 2750 1600 2750
Wire Wire Line
	1600 2750 1600 2950
Wire Wire Line
	1600 2950 1700 2950
Wire Wire Line
	1500 2850 1700 2850
Connection ~ 1600 2850
Wire Wire Line
	2900 3400 2900 3250
Wire Wire Line
	2900 3250 2850 3250
Wire Wire Line
	10000 2100 10000 6250
Wire Wire Line
	9900 2200 9900 6250
Wire Wire Line
	9700 6250 9700 4100
Wire Wire Line
	9800 6250 9800 2300
Wire Wire Line
	2850 2350 2950 2350
Wire Wire Line
	2950 2350 2950 2250
Wire Wire Line
	3400 2400 3400 2450
Wire Wire Line
	3400 2450 2850 2450
Wire Wire Line
	3400 1750 3400 2000
Wire Wire Line
	3600 1750 3600 2000
Wire Wire Line
	3600 2000 3800 2000
Connection ~ 3800 2550
Wire Wire Line
	3200 1750 3200 2000
Wire Wire Line
	3200 2000 3050 2000
Connection ~ 3050 3150
Connection ~ 3300 3050
Wire Wire Line
	3500 1750 3500 2650
Connection ~ 3500 2650
Wire Wire Line
	8050 2850 8100 2850
Wire Wire Line
	8100 2850 8100 2450
Wire Wire Line
	7400 2850 7550 2850
Wire Wire Line
	7400 2600 7550 2600
Connection ~ 7500 2450
Wire Wire Line
	8050 2600 8100 2600
Connection ~ 8100 2600
Wire Wire Line
	2850 2850 3100 2850
Wire Wire Line
	7400 4650 7550 4650
Connection ~ 7400 2600
Wire Wire Line
	7500 2450 7500 2400
Wire Wire Line
	7550 4400 7400 4400
Connection ~ 7400 4400
Wire Wire Line
	8100 4650 8050 4650
Wire Wire Line
	8050 4400 8100 4400
Connection ~ 8100 4400
Wire Wire Line
	6450 2500 6400 2500
Wire Wire Line
	6400 2500 6400 2750
Wire Wire Line
	6150 2600 6150 2750
Wire Wire Line
	7000 2000 6850 2000
Wire Wire Line
	6850 2000 6850 2100
Wire Wire Line
	6850 2100 6150 2100
Connection ~ 6150 2100
Wire Wire Line
	7000 2200 6600 2200
Connection ~ 6600 2200
Wire Wire Line
	7000 3800 6850 3800
Wire Wire Line
	6850 3800 6850 3900
Wire Wire Line
	6850 3900 6150 3900
Connection ~ 6150 3900
Wire Wire Line
	7000 4000 6600 4000
Wire Wire Line
	6600 3800 6600 4050
Connection ~ 6600 4000
Wire Wire Line
	6450 4300 6400 4300
Wire Wire Line
	6400 4300 6400 4550
Wire Wire Line
	6150 4400 6150 4550
Wire Wire Line
	6450 6100 6400 6100
Wire Wire Line
	6400 6100 6400 6350
Wire Wire Line
	6150 6350 6150 6200
Wire Wire Line
	7000 5800 6600 5800
Connection ~ 6600 5800
Wire Wire Line
	7000 5600 6850 5600
Wire Wire Line
	6850 5600 6850 5700
Wire Wire Line
	6850 5700 6150 5700
Connection ~ 6150 5700
Wire Wire Line
	8100 6400 8050 6400
Wire Wire Line
	7400 6400 7550 6400
Wire Wire Line
	7550 6200 7400 6200
Connection ~ 7400 6200
Wire Wire Line
	8050 6200 8100 6200
Connection ~ 8100 6200
Wire Wire Line
	3400 1900 2750 1900
Connection ~ 3400 1900
Wire Wire Line
	3300 6450 2850 6450
Wire Wire Line
	2850 6050 3550 6050
Wire Wire Line
	2850 5950 3800 5950
Wire Wire Line
	3550 6050 3550 6150
Wire Wire Line
	3300 5150 3300 6550
Wire Wire Line
	3050 5400 3050 6700
Wire Wire Line
	3050 6550 2850 6550
Wire Wire Line
	2850 6150 2950 6150
Wire Wire Line
	2950 6150 2950 6350
Wire Wire Line
	2950 6350 2850 6350
Connection ~ 2950 6250
Wire Wire Line
	3800 5400 3800 6000
Wire Wire Line
	1650 6700 1650 6650
Wire Wire Line
	1650 6650 1700 6650
Wire Wire Line
	1700 6150 1600 6150
Wire Wire Line
	1600 6150 1600 6350
Wire Wire Line
	1600 6350 1700 6350
Wire Wire Line
	1500 6250 1700 6250
Connection ~ 1600 6250
Wire Wire Line
	2900 6800 2900 6650
Wire Wire Line
	2900 6650 2850 6650
Wire Wire Line
	2850 5750 2950 5750
Wire Wire Line
	2950 5750 2950 5650
Wire Wire Line
	3400 5800 3400 5850
Wire Wire Line
	3400 5850 2850 5850
Wire Wire Line
	3400 5150 3400 5400
Wire Wire Line
	3600 5150 3600 5400
Wire Wire Line
	3600 5400 3800 5400
Connection ~ 3800 5950
Wire Wire Line
	3200 5150 3200 5400
Wire Wire Line
	3200 5400 3050 5400
Connection ~ 3050 6550
Connection ~ 3300 6450
Wire Wire Line
	3500 5150 3500 6050
Connection ~ 3500 6050
Wire Wire Line
	2850 6250 3100 6250
Wire Wire Line
	3400 5300 2750 5300
Connection ~ 3400 5300
Wire Wire Line
	1700 3150 1550 3150
Wire Wire Line
	1550 3150 1550 6550
Wire Wire Line
	1550 6550 1700 6550
Wire Wire Line
	1700 6450 1450 6450
Wire Wire Line
	1450 6450 1450 3050
Wire Wire Line
	1450 3050 1700 3050
Wire Wire Line
	1700 2650 1350 2650
Wire Wire Line
	1350 2650 1350 6050
Wire Wire Line
	1350 6050 1700 6050
Wire Wire Line
	1700 5950 1250 5950
Wire Wire Line
	1250 5950 1250 2550
Wire Wire Line
	1250 2550 1700 2550
Wire Wire Line
	1800 4400 1250 4400
Connection ~ 1250 4400
Wire Wire Line
	1800 4500 1350 4500
Connection ~ 1350 4500
Wire Wire Line
	1800 4600 1450 4600
Connection ~ 1450 4600
Wire Wire Line
	1800 4700 1550 4700
Connection ~ 1550 4700
Wire Wire Line
	1800 4800 1650 4800
Wire Wire Line
	1650 4800 1650 3400
Wire Wire Line
	1650 3400 2900 3400
Wire Wire Line
	1800 4900 1150 4900
Wire Wire Line
	1150 4900 1150 6800
Wire Wire Line
	1150 6800 2900 6800
Wire Wire Line
	1500 1350 1600 1350
Wire Wire Line
	1600 1350 1600 1800
Wire Wire Line
	2050 850  2050 1350
Wire Wire Line
	1850 850  2200 850 
Wire Wire Line
	2150 1150 1500 1150
Wire Wire Line
	2150 1250 1900 1250
Wire Wire Line
	2050 1350 2150 1350
Wire Wire Line
	5200 6950 5200 6650
Wire Wire Line
	5000 6950 5000 6700
Wire Wire Line
	4700 6700 5100 6700
Wire Wire Line
	4700 6700 4700 6900
Wire Wire Line
	1800 5000 1650 5000
Wire Wire Line
	1650 5000 1650 5100
$Comp
L PWR_FLAG #FLG040
U 1 1 55B246E0
P 1850 850
F 0 "#FLG040" H 1850 945 30  0001 C CNN
F 1 "PWR_FLAG" H 1850 1030 30  0000 C CNN
F 2 "" H 1850 850 60  0000 C CNN
F 3 "" H 1850 850 60  0000 C CNN
	1    1850 850 
	0    -1   -1   0   
$EndComp
$Comp
L PWR_FLAG #FLG041
U 1 1 55B246EF
P 1200 1650
F 0 "#FLG041" H 1200 1745 30  0001 C CNN
F 1 "PWR_FLAG" H 1200 1830 30  0000 C CNN
F 2 "" H 1200 1650 60  0000 C CNN
F 3 "" H 1200 1650 60  0000 C CNN
	1    1200 1650
	0    -1   -1   0   
$EndComp
$Comp
L PWR_FLAG #FLG042
U 1 1 55B246FE
P 1950 1550
F 0 "#FLG042" H 1950 1645 30  0001 C CNN
F 1 "PWR_FLAG" H 1950 1730 30  0000 C CNN
F 2 "" H 1950 1550 60  0000 C CNN
F 3 "" H 1950 1550 60  0000 C CNN
	1    1950 1550
	-1   0    0    1   
$EndComp
Connection ~ 2050 850 
Wire Wire Line
	1950 1550 1950 1250
Connection ~ 1950 1250
Wire Wire Line
	1200 1650 1600 1650
Connection ~ 1600 1650
Wire Wire Line
	3050 3700 3050 3750
Wire Wire Line
	3050 3750 3800 3750
Wire Wire Line
	3800 3750 3800 3000
Wire Wire Line
	3550 3150 3550 3750
Connection ~ 3550 3750
Wire Wire Line
	3300 3550 3300 3750
Connection ~ 3300 3750
$Comp
L R RD-1
U 1 1 55B7F860
P 3400 4050
F 0 "RD-1" V 3480 4050 40  0000 C CNN
F 1 "560" V 3407 4051 40  0000 C CNN
F 2 "~" V 3330 4050 30  0000 C CNN
F 3 "~" H 3400 4050 30  0000 C CNN
	1    3400 4050
	1    0    0    -1  
$EndComp
Wire Wire Line
	3300 4400 3400 4400
Wire Wire Line
	3400 4400 3400 4300
Wire Wire Line
	3400 3800 3400 3750
Connection ~ 3400 3750
$Comp
L VCC #PWR043
U 1 1 55B7FACB
P 3300 7800
F 0 "#PWR043" H 3300 7900 30  0001 C CNN
F 1 "VCC" H 3300 7900 30  0000 C CNN
F 2 "" H 3300 7800 60  0000 C CNN
F 3 "" H 3300 7800 60  0000 C CNN
	1    3300 7800
	0    -1   -1   0   
$EndComp
Wire Wire Line
	3050 7100 3050 7150
Wire Wire Line
	3050 7150 3800 7150
Wire Wire Line
	3800 7150 3800 6400
Wire Wire Line
	3550 6550 3550 7150
Connection ~ 3550 7150
Wire Wire Line
	3300 6950 3300 7150
Connection ~ 3300 7150
$Comp
L R RD-2
U 1 1 55B7FAD8
P 3400 7450
F 0 "RD-2" V 3480 7450 40  0000 C CNN
F 1 "560" V 3407 7451 40  0000 C CNN
F 2 "~" V 3330 7450 30  0000 C CNN
F 3 "~" H 3400 7450 30  0000 C CNN
	1    3400 7450
	1    0    0    -1  
$EndComp
Wire Wire Line
	3300 7800 3400 7800
Wire Wire Line
	3400 7800 3400 7700
Wire Wire Line
	3400 7200 3400 7150
Connection ~ 3400 7150
Wire Wire Line
	9500 6250 9500 6100
$Comp
L CONN_3 Vin1
U 1 1 55B8EBCA
P 5100 7300
F 0 "Vin1" V 5050 7300 50  0000 C CNN
F 1 "CONN_3" V 5150 7300 40  0000 C CNN
F 2 "" H 5100 7300 60  0000 C CNN
F 3 "" H 5100 7300 60  0000 C CNN
	1    5100 7300
	0    1    1    0   
$EndComp
Wire Wire Line
	5100 6700 5100 6950
Connection ~ 5000 6700
$EndSCHEMATC
