(export (version D)
  (design
    (source /home/julian/Git/HelioX/Schematic-PCB/HelioX.sch)
    (date "mié 29 jul 2015 10:19:19 COT")
    (tool "eeschema (2013-jul-07)-stable"))
  (components
    (comp (ref RA-1)
      (value 20k)
      (libsource (lib device) (part R))
      (sheetpath (names /) (tstamps /))
      (tstamp 5585CAE7))
    (comp (ref RA-2)
      (value 20k)
      (libsource (lib device) (part R))
      (sheetpath (names /) (tstamps /))
      (tstamp 5585CAE9))
    (comp (ref OpAmp1)
      (value INA826)
      (libsource (lib HelioX-cache) (part INA826))
      (sheetpath (names /) (tstamps /))
      (tstamp 5585CAF7))
    (comp (ref DRV1)
      (value DRV8803)
      (libsource (lib HelioX-cache) (part DVR8803))
      (sheetpath (names /) (tstamps /))
      (tstamp 5585CB09))
    (comp (ref Reg1)
      (value LM3480)
      (libsource (lib HelioX-cache) (part LM2937))
      (sheetpath (names /) (tstamps /))
      (tstamp 5585CB13))
    (comp (ref ADC1)
      (value TLC548)
      (libsource (lib HelioX-cache) (part TLC548))
      (sheetpath (names /) (tstamps /))
      (tstamp 5585CAFD))
    (comp (ref PhotoR1)
      (value CONN_2)
      (libsource (lib conn) (part CONN_2))
      (sheetpath (names /) (tstamps /))
      (tstamp 5585E93E))
    (comp (ref POT1)
      (value 2k)
      (libsource (lib device) (part POT))
      (sheetpath (names /) (tstamps /))
      (tstamp 5586267B))
    (comp (ref RA-3)
      (value 1.5k)
      (libsource (lib device) (part R))
      (sheetpath (names /) (tstamps /))
      (tstamp 55B16A2B))
    (comp (ref RB-1)
      (value 20k)
      (libsource (lib device) (part R))
      (sheetpath (names /) (tstamps /))
      (tstamp 55B176A3))
    (comp (ref RB-2)
      (value 20k)
      (libsource (lib device) (part R))
      (sheetpath (names /) (tstamps /))
      (tstamp 55B176A9))
    (comp (ref OpAmp2)
      (value INA826)
      (libsource (lib HelioX-cache) (part INA826))
      (sheetpath (names /) (tstamps /))
      (tstamp 55B176AF))
    (comp (ref Reg2)
      (value LM3480)
      (libsource (lib HelioX-cache) (part LM2937))
      (sheetpath (names /) (tstamps /))
      (tstamp 55B176C1))
    (comp (ref ADC2)
      (value TLC548)
      (libsource (lib HelioX-cache) (part TLC548))
      (sheetpath (names /) (tstamps /))
      (tstamp 55B176C7))
    (comp (ref PhotoR2)
      (value CONN_2)
      (libsource (lib conn) (part CONN_2))
      (sheetpath (names /) (tstamps /))
      (tstamp 55B176CD))
    (comp (ref POT2)
      (value 2k)
      (libsource (lib device) (part POT))
      (sheetpath (names /) (tstamps /))
      (tstamp 55B176D3))
    (comp (ref RB-3)
      (value 1.5k)
      (libsource (lib device) (part R))
      (sheetpath (names /) (tstamps /))
      (tstamp 55B176EF))
    (comp (ref RC-1)
      (value 20k)
      (libsource (lib device) (part R))
      (sheetpath (names /) (tstamps /))
      (tstamp 55B17751))
    (comp (ref RC-2)
      (value 20k)
      (libsource (lib device) (part R))
      (sheetpath (names /) (tstamps /))
      (tstamp 55B17757))
    (comp (ref OpAmp3)
      (value INA826)
      (libsource (lib HelioX-cache) (part INA826))
      (sheetpath (names /) (tstamps /))
      (tstamp 55B1775D))
    (comp (ref Reg3)
      (value LM3480)
      (libsource (lib HelioX-cache) (part LM2937))
      (sheetpath (names /) (tstamps /))
      (tstamp 55B1776F))
    (comp (ref ADC3)
      (value TLC548)
      (libsource (lib HelioX-cache) (part TLC548))
      (sheetpath (names /) (tstamps /))
      (tstamp 55B17775))
    (comp (ref PhotoR3)
      (value CONN_2)
      (libsource (lib conn) (part CONN_2))
      (sheetpath (names /) (tstamps /))
      (tstamp 55B1777B))
    (comp (ref POT3)
      (value 2k)
      (libsource (lib device) (part POT))
      (sheetpath (names /) (tstamps /))
      (tstamp 55B17781))
    (comp (ref RC-3)
      (value 1.5k)
      (libsource (lib device) (part R))
      (sheetpath (names /) (tstamps /))
      (tstamp 55B1779D))
    (comp (ref Motor1)
      (value CONN_5)
      (libsource (lib conn) (part CONN_5))
      (sheetpath (names /) (tstamps /))
      (tstamp 55B185F8))
    (comp (ref D6)
      (value LED)
      (libsource (lib device) (part LED))
      (sheetpath (names /) (tstamps /))
      (tstamp 55B18AAE))
    (comp (ref D4)
      (value LED)
      (libsource (lib device) (part LED))
      (sheetpath (names /) (tstamps /))
      (tstamp 55B18AEA))
    (comp (ref D5)
      (value LED)
      (libsource (lib device) (part LED))
      (sheetpath (names /) (tstamps /))
      (tstamp 55B18AF9))
    (comp (ref D3)
      (value LED)
      (libsource (lib device) (part LED))
      (sheetpath (names /) (tstamps /))
      (tstamp 55B19660))
    (comp (ref D1)
      (value ZENER)
      (libsource (lib device) (part ZENER))
      (sheetpath (names /) (tstamps /))
      (tstamp 55B1B6CA))
    (comp (ref RA-4)
      (value 1.5k)
      (libsource (lib device) (part R))
      (sheetpath (names /) (tstamps /))
      (tstamp 55B1C4C4))
    (comp (ref RB-4)
      (value 1.5k)
      (libsource (lib device) (part R))
      (sheetpath (names /) (tstamps /))
      (tstamp 55B1CF4E))
    (comp (ref RC-4)
      (value 1.5k)
      (libsource (lib device) (part R))
      (sheetpath (names /) (tstamps /))
      (tstamp 55B1F634))
    (comp (ref DRV2)
      (value DRV8803)
      (libsource (lib HelioX-cache) (part DVR8803))
      (sheetpath (names /) (tstamps /))
      (tstamp 55B206D0))
    (comp (ref Motor2)
      (value CONN_5)
      (libsource (lib conn) (part CONN_5))
      (sheetpath (names /) (tstamps /))
      (tstamp 55B206D6))
    (comp (ref D10)
      (value LED)
      (libsource (lib device) (part LED))
      (sheetpath (names /) (tstamps /))
      (tstamp 55B206F4))
    (comp (ref D8)
      (value LED)
      (libsource (lib device) (part LED))
      (sheetpath (names /) (tstamps /))
      (tstamp 55B206FA))
    (comp (ref D9)
      (value LED)
      (libsource (lib device) (part LED))
      (sheetpath (names /) (tstamps /))
      (tstamp 55B20700))
    (comp (ref D7)
      (value LED)
      (libsource (lib device) (part LED))
      (sheetpath (names /) (tstamps /))
      (tstamp 55B20706))
    (comp (ref D2)
      (value ZENER)
      (libsource (lib device) (part ZENER))
      (sheetpath (names /) (tstamps /))
      (tstamp 55B2071A))
    (comp (ref Data1)
      (value CONN_6)
      (libsource (lib conn) (part CONN_6))
      (sheetpath (names /) (tstamps /))
      (tstamp 55B21B45))
    (comp (ref Jumper1)
      (value CONN_3)
      (libsource (lib conn) (part CONN_3))
      (sheetpath (names /) (tstamps /))
      (tstamp 55B21D15))
    (comp (ref Vin2)
      (value CONN_2)
      (libsource (lib conn) (part CONN_2))
      (sheetpath (names /) (tstamps /))
      (tstamp 55B21D3D))
    (comp (ref Ctrl1)
      (value CONN_7)
      (libsource (lib conn) (part CONN_7))
      (sheetpath (names /) (tstamps /))
      (tstamp 55B23E8B))
    (comp (ref RD-1)
      (value 560)
      (libsource (lib device) (part R))
      (sheetpath (names /) (tstamps /))
      (tstamp 55B7F860))
    (comp (ref RD-2)
      (value 560)
      (libsource (lib device) (part R))
      (sheetpath (names /) (tstamps /))
      (tstamp 55B7FAD8))
    (comp (ref Vin1)
      (value CONN_3)
      (libsource (lib conn) (part CONN_3))
      (sheetpath (names /) (tstamps /))
      (tstamp 55B8EBCA)))
  (libparts
    (libpart (lib device) (part LED)
      (footprints
        (fp LED-3MM)
        (fp LED-5MM)
        (fp LED-10MM)
        (fp LED-0603)
        (fp LED-0805)
        (fp LED-1206)
        (fp LEDV))
      (fields
        (field (name Reference) D)
        (field (name Value) LED)
        (field (name Footprint) ~)
        (field (name Datasheet) ~))
      (pins
        (pin (num 1) (name A) (type passive))
        (pin (num 2) (name K) (type passive))))
    (libpart (lib device) (part POT)
      (description Potentionmetre)
      (fields
        (field (name Reference) RV)
        (field (name Value) POT)
        (field (name Footprint) ~)
        (field (name Datasheet) ~))
      (pins
        (pin (num 1) (name 1) (type passive))
        (pin (num 2) (name 2) (type passive))
        (pin (num 3) (name 3) (type passive))))
    (libpart (lib device) (part R)
      (description Resistance)
      (footprints
        (fp R?)
        (fp SM0603)
        (fp SM0805)
        (fp R?-*)
        (fp SM1206))
      (fields
        (field (name Reference) R)
        (field (name Value) R)
        (field (name Footprint) ~)
        (field (name Datasheet) ~))
      (pins
        (pin (num 1) (name ~) (type passive))
        (pin (num 2) (name ~) (type passive))))
    (libpart (lib device) (part ZENER)
      (description "Diode zener")
      (footprints
        (fp D?)
        (fp SO*)
        (fp SM*))
      (fields
        (field (name Reference) D)
        (field (name Value) ZENER)
        (field (name Footprint) ~)
        (field (name Datasheet) ~))
      (pins
        (pin (num 1) (name A) (type passive))
        (pin (num 2) (name K) (type passive))))
    (libpart (lib conn) (part CONN_2)
      (description "Symbole general de connecteur")
      (fields
        (field (name Reference) P)
        (field (name Value) CONN_2))
      (pins
        (pin (num 1) (name P1) (type passive))
        (pin (num 2) (name PM) (type passive))))
    (libpart (lib conn) (part CONN_3)
      (description "Symbole general de connecteur")
      (fields
        (field (name Reference) K)
        (field (name Value) CONN_3))
      (pins
        (pin (num 1) (name P1) (type passive))
        (pin (num 2) (name PM) (type passive))
        (pin (num 3) (name P3) (type passive))))
    (libpart (lib conn) (part CONN_5)
      (description "Symbole general de connecteur")
      (fields
        (field (name Reference) P)
        (field (name Value) CONN_5))
      (pins
        (pin (num 1) (name ~) (type passive))
        (pin (num 2) (name ~) (type passive))
        (pin (num 3) (name ~) (type passive))
        (pin (num 4) (name ~) (type passive))
        (pin (num 5) (name ~) (type passive))))
    (libpart (lib conn) (part CONN_6)
      (description "ymbole general de connecteur")
      (fields
        (field (name Reference) P)
        (field (name Value) CONN_6))
      (pins
        (pin (num 1) (name 1) (type passive))
        (pin (num 2) (name 2) (type passive))
        (pin (num 3) (name 3) (type passive))
        (pin (num 4) (name 4) (type passive))
        (pin (num 5) (name 5) (type passive))
        (pin (num 6) (name 6) (type passive))))
    (libpart (lib conn) (part CONN_7)
      (description "Symbole general pour connexions")
      (fields
        (field (name Reference) P)
        (field (name Value) CONN_7))
      (pins
        (pin (num 1) (name P1) (type passive))
        (pin (num 2) (name P2) (type passive))
        (pin (num 3) (name P3) (type passive))
        (pin (num 4) (name P4) (type passive))
        (pin (num 5) (name P5) (type passive))
        (pin (num 6) (name P6) (type passive))
        (pin (num 7) (name P7) (type passive))))
    (libpart (lib HelioX-cache) (part DVR8803)
      (fields
        (field (name Reference) U)
        (field (name Value) DVR8803)
        (field (name Footprint) ~)
        (field (name Datasheet) ~))
      (pins
        (pin (num 1) (name VM) (type input))
        (pin (num 2) (name VCLAMP) (type input))
        (pin (num 3) (name OUT1) (type input))
        (pin (num 4) (name OUT2) (type input))
        (pin (num 5) (name GND) (type input))
        (pin (num 6) (name GND) (type input))
        (pin (num 7) (name GND) (type input))
        (pin (num 8) (name OUT3) (type input))
        (pin (num 9) (name OUT4) (type input))
        (pin (num 10) (name nENBL) (type input))
        (pin (num 11) (name RESET) (type input))
        (pin (num 12) (name IN4) (type input))
        (pin (num 13) (name IN3) (type input))
        (pin (num 14) (name GND) (type input))
        (pin (num 15) (name GND) (type input))
        (pin (num 16) (name GND) (type input))
        (pin (num 17) (name IN2) (type input))
        (pin (num 18) (name IN1) (type input))
        (pin (num 19) (name NC) (type input))
        (pin (num 20) (name nFAULT) (type input))))
    (libpart (lib HelioX-cache) (part INA826)
      (fields
        (field (name Reference) U)
        (field (name Value) INA826)
        (field (name Footprint) ~)
        (field (name Datasheet) ~))
      (pins
        (pin (num 1) (name -) (type input))
        (pin (num 2) (name Rg) (type passive))
        (pin (num 3) (name Rg) (type passive))
        (pin (num 4) (name +) (type input))
        (pin (num 5) (name V_) (type passive))
        (pin (num 6) (name Ref) (type input))
        (pin (num 7) (name OUT) (type output))
        (pin (num 8) (name V+) (type passive))))
    (libpart (lib HelioX-cache) (part LM2937)
      (fields
        (field (name Reference) U)
        (field (name Value) LM2937)
        (field (name Footprint) ~)
        (field (name Datasheet) ~))
      (pins
        (pin (num 1) (name Vout) (type power_out))
        (pin (num 2) (name Vin) (type input))
        (pin (num 3) (name GND) (type input))))
    (libpart (lib HelioX-cache) (part TLC548)
      (fields
        (field (name Reference) U)
        (field (name Value) TLC548)
        (field (name Footprint) ~)
        (field (name Datasheet) ~))
      (pins
        (pin (num 1) (name REF+) (type input))
        (pin (num 2) (name A_IN) (type input))
        (pin (num 3) (name REF-) (type input))
        (pin (num 4) (name GND) (type input))
        (pin (num 5) (name CS) (type input))
        (pin (num 6) (name OUT) (type input))
        (pin (num 7) (name CLK) (type input))
        (pin (num 8) (name VCC) (type input)))))
  (libraries
    (library (logical device)
      (uri /usr/share/kicad/library/device.lib))
    (library (logical conn)
      (uri /usr/share/kicad/library/conn.lib))
    (library (logical HelioX-cache)
      (uri /home/julian/Git/HelioX/Schematic-PCB/HelioX-cache.lib)))
  (nets
    (net (code 1) (name "")
      (node (ref ADC2) (pin 5))
      (node (ref Data1) (pin 3)))
    (net (code 2) (name "")
      (node (ref ADC1) (pin 5))
      (node (ref Data1) (pin 4)))
    (net (code 3) (name "")
      (node (ref D1) (pin 2))
      (node (ref DRV1) (pin 2)))
    (net (code 4) (name "")
      (node (ref DRV1) (pin 8))
      (node (ref Motor1) (pin 4))
      (node (ref D5) (pin 2)))
    (net (code 5) (name "")
      (node (ref Motor1) (pin 1))
      (node (ref DRV1) (pin 3))
      (node (ref D3) (pin 2)))
    (net (code 6) (name "")
      (node (ref DRV1) (pin 9))
      (node (ref Motor1) (pin 5))
      (node (ref D6) (pin 2)))
    (net (code 7) (name "")
      (node (ref RB-4) (pin 2))
      (node (ref OpAmp2) (pin 3))
      (node (ref RB-3) (pin 2)))
    (net (code 8) (name "")
      (node (ref OpAmp2) (pin 4))
      (node (ref PhotoR2) (pin 2))
      (node (ref RB-1) (pin 2)))
    (net (code 9) (name "")
      (node (ref DRV1) (pin 4))
      (node (ref D4) (pin 2))
      (node (ref Motor1) (pin 2)))
    (net (code 10) (name "")
      (node (ref ADC2) (pin 6))
      (node (ref ADC3) (pin 6))
      (node (ref ADC1) (pin 6))
      (node (ref Data1) (pin 5)))
    (net (code 11) (name "")
      (node (ref OpAmp1) (pin 3))
      (node (ref RA-3) (pin 2))
      (node (ref RA-4) (pin 2)))
    (net (code 12) (name "")
      (node (ref OpAmp2) (pin 2))
      (node (ref RB-4) (pin 1))
      (node (ref RB-3) (pin 1)))
    (net (code 13) (name "")
      (node (ref ADC2) (pin 2))
      (node (ref OpAmp2) (pin 7)))
    (net (code 14) (name +12V)
      (node (ref Reg2) (pin 2))
      (node (ref Vin1) (pin 1))
      (node (ref Reg3) (pin 2))
      (node (ref DRV1) (pin 1))
      (node (ref Reg1) (pin 2))
      (node (ref Jumper1) (pin 3))
      (node (ref DRV2) (pin 1))
      (node (ref Ctrl1) (pin 1)))
    (net (code 15) (name "")
      (node (ref OpAmp2) (pin 8))
      (node (ref RB-2) (pin 1))
      (node (ref RB-1) (pin 1))
      (node (ref ADC2) (pin 1))
      (node (ref ADC2) (pin 8))
      (node (ref Reg2) (pin 1)))
    (net (code 16) (name GND)
      (node (ref OpAmp3) (pin 5))
      (node (ref OpAmp3) (pin 6))
      (node (ref Reg3) (pin 3))
      (node (ref ADC3) (pin 3))
      (node (ref DRV1) (pin 6))
      (node (ref DRV1) (pin 7))
      (node (ref POT3) (pin 2))
      (node (ref ADC3) (pin 4))
      (node (ref PhotoR2) (pin 1))
      (node (ref ADC2) (pin 4))
      (node (ref ADC2) (pin 3))
      (node (ref PhotoR3) (pin 1))
      (node (ref Reg2) (pin 3))
      (node (ref POT2) (pin 2))
      (node (ref DRV2) (pin 16))
      (node (ref DRV2) (pin 11))
      (node (ref DRV2) (pin 14))
      (node (ref DRV2) (pin 15))
      (node (ref DRV2) (pin 5))
      (node (ref DRV2) (pin 6))
      (node (ref DRV2) (pin 7))
      (node (ref OpAmp2) (pin 6))
      (node (ref DRV1) (pin 5))
      (node (ref DRV1) (pin 14))
      (node (ref DRV1) (pin 15))
      (node (ref DRV1) (pin 16))
      (node (ref OpAmp1) (pin 6))
      (node (ref OpAmp1) (pin 5))
      (node (ref OpAmp2) (pin 5))
      (node (ref DRV1) (pin 11))
      (node (ref Reg1) (pin 3))
      (node (ref ADC1) (pin 3))
      (node (ref ADC1) (pin 4))
      (node (ref PhotoR1) (pin 1))
      (node (ref POT1) (pin 2))
      (node (ref Data1) (pin 1))
      (node (ref Vin2) (pin 1))
      (node (ref Vin1) (pin 2))
      (node (ref Vin1) (pin 3)))
    (net (code 17) (name "")
      (node (ref Data1) (pin 2))
      (node (ref ADC3) (pin 5)))
    (net (code 18) (name "")
      (node (ref ADC2) (pin 7))
      (node (ref ADC1) (pin 7))
      (node (ref ADC3) (pin 7))
      (node (ref Data1) (pin 6)))
    (net (code 19) (name "")
      (node (ref Reg3) (pin 1))
      (node (ref ADC3) (pin 1))
      (node (ref OpAmp3) (pin 8))
      (node (ref ADC3) (pin 8))
      (node (ref RC-2) (pin 1))
      (node (ref RC-1) (pin 1)))
    (net (code 20) (name "")
      (node (ref ADC3) (pin 2))
      (node (ref OpAmp3) (pin 7)))
    (net (code 21) (name "")
      (node (ref Vin2) (pin 2))
      (node (ref Jumper1) (pin 1)))
    (net (code 22) (name "")
      (node (ref DRV2) (pin 18))
      (node (ref Ctrl1) (pin 7))
      (node (ref DRV1) (pin 18)))
    (net (code 23) (name "")
      (node (ref Ctrl1) (pin 3))
      (node (ref DRV1) (pin 10)))
    (net (code 24) (name "")
      (node (ref Ctrl1) (pin 2))
      (node (ref DRV2) (pin 10)))
    (net (code 25) (name VCC)
      (node (ref RD-1) (pin 2))
      (node (ref D2) (pin 1))
      (node (ref Motor1) (pin 3))
      (node (ref D1) (pin 1))
      (node (ref RD-2) (pin 2))
      (node (ref Jumper1) (pin 2))
      (node (ref Motor2) (pin 3)))
    (net (code 26) (name "")
      (node (ref D8) (pin 1))
      (node (ref D10) (pin 1))
      (node (ref D9) (pin 1))
      (node (ref D7) (pin 1))
      (node (ref RD-2) (pin 1)))
    (net (code 27) (name "")
      (node (ref RD-1) (pin 1))
      (node (ref D6) (pin 1))
      (node (ref D4) (pin 1))
      (node (ref D5) (pin 1))
      (node (ref D3) (pin 1)))
    (net (code 28) (name "")
      (node (ref RC-3) (pin 1))
      (node (ref OpAmp3) (pin 2))
      (node (ref RC-4) (pin 1)))
    (net (code 29) (name "")
      (node (ref RC-4) (pin 2))
      (node (ref RC-3) (pin 2))
      (node (ref OpAmp3) (pin 3)))
    (net (code 30) (name "")
      (node (ref Motor2) (pin 4))
      (node (ref D9) (pin 2))
      (node (ref DRV2) (pin 8)))
    (net (code 31) (name "")
      (node (ref D7) (pin 2))
      (node (ref DRV2) (pin 3))
      (node (ref Motor2) (pin 1)))
    (net (code 32) (name "")
      (node (ref DRV2) (pin 9))
      (node (ref Motor2) (pin 5))
      (node (ref D10) (pin 2)))
    (net (code 33) (name "")
      (node (ref RB-2) (pin 2))
      (node (ref POT2) (pin 3))
      (node (ref OpAmp2) (pin 1)))
    (net (code 34) (name "")
      (node (ref OpAmp3) (pin 1))
      (node (ref RC-2) (pin 2))
      (node (ref POT3) (pin 3)))
    (net (code 35) (name "")
      (node (ref RC-1) (pin 2))
      (node (ref OpAmp3) (pin 4))
      (node (ref PhotoR3) (pin 2)))
    (net (code 36) (name "")
      (node (ref Ctrl1) (pin 4))
      (node (ref DRV2) (pin 12))
      (node (ref DRV1) (pin 12)))
    (net (code 37) (name "")
      (node (ref Motor2) (pin 2))
      (node (ref DRV2) (pin 4))
      (node (ref D8) (pin 2)))
    (net (code 38) (name "")
      (node (ref Ctrl1) (pin 5))
      (node (ref DRV1) (pin 13))
      (node (ref DRV2) (pin 13)))
    (net (code 39) (name "")
      (node (ref Ctrl1) (pin 6))
      (node (ref DRV1) (pin 17))
      (node (ref DRV2) (pin 17)))
    (net (code 40) (name "")
      (node (ref D2) (pin 2))
      (node (ref DRV2) (pin 2)))
    (net (code 41) (name "")
      (node (ref POT2) (pin 1)))
    (net (code 42) (name "")
      (node (ref POT3) (pin 1)))
    (net (code 43) (name "")
      (node (ref DRV1) (pin 20)))
    (net (code 44) (name "")
      (node (ref DRV1) (pin 19)))
    (net (code 45) (name "")
      (node (ref OpAmp1) (pin 2))
      (node (ref RA-4) (pin 1))
      (node (ref RA-3) (pin 1)))
    (net (code 46) (name "")
      (node (ref RA-2) (pin 1))
      (node (ref RA-1) (pin 1))
      (node (ref Reg1) (pin 1))
      (node (ref OpAmp1) (pin 8))
      (node (ref ADC1) (pin 8))
      (node (ref ADC1) (pin 1)))
    (net (code 47) (name "")
      (node (ref ADC1) (pin 2))
      (node (ref OpAmp1) (pin 7)))
    (net (code 48) (name "")
      (node (ref RA-1) (pin 2))
      (node (ref OpAmp1) (pin 4))
      (node (ref PhotoR1) (pin 2)))
    (net (code 49) (name "")
      (node (ref POT1) (pin 1)))
    (net (code 50) (name "")
      (node (ref RA-2) (pin 2))
      (node (ref OpAmp1) (pin 1))
      (node (ref POT1) (pin 3)))
    (net (code 51) (name "")
      (node (ref DRV2) (pin 19)))
    (net (code 52) (name "")
      (node (ref DRV2) (pin 20)))))